{ head: {tock:0},
  signal: [
  {   name: 'clk'          , wave: 'p.............' },
  {},
  [{},
    { name: 'reset'        , wave: '101...........' },
    { name: 'write_en'     , wave: '0..1..01.....0' },
    { name: 'oe'           , wave: '1.............' },
    { name: 'address[7:0]' , wave: '5..===5======5', data: 'Z 17 16 10 Z 00 01 02 03 31 40 Z' },
    { name: 'databus[7:0]' , wave: '5..=..5======5', data: 'Z 01 Z 69 22 aa 01 17 aa Z' },
    { name: 'switches[7:0]', wave: 'u=.===........', data: '00 80 c0 c1' },
  ],
  {},
  [{},
    { name: 'reset'        , wave: '1.............' },
    { name: 'write_en'     , wave: '0.............' },
    { name: 'oe'           , wave: '1..0....1.....' },
    { name: 'address[7:0]' , wave: '5..=====5.....', data: 'Z 02 03 31 03 40 Z' },
    { name: 'databus[7:0]' , wave: '5..=====5.....', data: 'Z aa 01 17 01 aa Z' },
    { name: 'switches[7:0]', wave: '=.............', data: 'c1' },
  ],
  ],
}
