{ head: {tock:0},
  signal: [
  {   name: 'clk'         , wave: 'p.................' },
  {},
  [{},
    { name: 'reset'       , wave: '101...............' },
    { name: 'write_en'    , wave: '0.....1...0..1...0' },
    { name: 'address[7:0]', wave: '=......====...====', data: '00 01 02 03 00 01 02 03 00' },
    { name: 'databus[7:0]', wave: '5.....=..=5..=..=5', data: 'Z 10 ff Z 20 ff Z' },
    { name: 'dma_rq'      , wave: '1.................' },
    { name: 'dma_ack'     , wave: '0.....10.....1.0..' },
    { name: 'tx_data[7:0]', wave: '=.................', data: '00' },
  ],
  {},
  [{},
    { name: 'reset'       , wave: '1.................' },
    { name: 'write_en'    , wave: '0...1...0.........' },
    { name: 'address[7:0]', wave: '=....====.....=...', data: '00 01 02 03 00 04' },
    { name: 'databus[7:0]', wave: '5...=..=5...=.....', data: 'Z 30 ff Z 0a' },
    { name: 'dma_rq'      , wave: '1.......01........' },
    { name: 'dma_ack'     , wave: '0...10..10........' },
    { name: 'tx_data[7:0]', wave: '=...............==', data: '00 0a 00' },
  ],
  {},
  [{},
    { name: 'reset'       , wave: '1.................' },
    { name: 'write_en'    , wave: '0.................' },
    { name: 'address[7:0]', wave: '=.................', data: '05' },
    { name: 'databus[7:0]', wave: '=...=.............', data: '0a 0b' },
    { name: 'dma_rq'      , wave: '1.................' },
    { name: 'dma_ack'     , wave: '0.................' },
    { name: 'tx_data[7:0]', wave: '=...=.............', data: '0a 0b' },
  ],
  ],
}
